<svg xmlns="http://www.w3.org/2000/svg" xmlns:xlink="http://www.w3.org/1999/xlink" viewBox="0 0 18 18">
  <defs>
    <style>
      .cls-1 {
        clip-path: url(#clip-Icon-Menu);
      }

      .cls-2 {
        fill: white;
      }
    </style>
    <clipPath id="clip-Icon-Menu">
      <rect width="18" height="18"/>
    </clipPath>
  </defs>
  <g id="Icon-Menu" class="cls-1">
    <rect class="cls-2" width="18" height="18"/>
    <g id="Group_584" data-name="Group 584" transform="translate(-35 -83)">
      <g id="Group_7" data-name="Group 7" transform="translate(-1756 -76)">
        <rect id="Rectangle_129" data-name="Rectangle 129" width="16" height="2" transform="translate(1792 162)"/>
        <rect id="Rectangle_130" data-name="Rectangle 130" width="16" height="2" transform="translate(1792 167)"/>
        <rect id="Rectangle_131" data-name="Rectangle 131" width="16" height="2" transform="translate(1792 172)"/>
      </g>
    </g>
  </g>
</svg>
